What happens to your new genetic predictor when it’s constructed from people who were predicted using a previous predictor and have since acted on that prediction?
…
# Update the phenotypes for these individuals
y1 <- gvec + evec + scale(x1) * sqrt(0.3) * b_x1
cor(y, y1)

##           [,1]
## [1,] 0.9123525

# Perform GWAS on wave 2
b_ghat2 <- gwas(y1[training2], G[training2,])

gwas(x1[training2], G[training2,])

## # A tibble: 40 x 7
##     ahat     bhat      se    fval      pval     n   snp
##    <dbl>    <dbl>   <dbl>   <dbl>     <dbl> <dbl> <int>
##  1 0.256 -0.00236 0.00314   0.566 4.52e-  1 10000     1
##  2 0.179  0.0747  0.00307 591.    7.98e-127 10000     2
##  3 0.268 -0.0139  0.00313  19.8   8.64e-  6 10000     3
##  4 0.267 -0.0136  0.00317  18.3   1.92e-  5 10000     4
##  5 0.265 -0.0117  0.00314  13.9   1.96e-  4 10000     5
##  6 0.248  0.00553 0.00313   3.13  7.68e-  2 10000     6
##  7 0.197  0.0569  0.00310 338.    3.47e- 74 10000     7
##  8 0.248  0.00521 0.00316   2.72  9.92e-  2 10000     8
##  9 0.269 -0.0152  0.00314  23.4   1.34e-  6 10000     9
## 10 0.192  0.0617  0.00309 399.    3.71e- 87 10000    10
## # … with 30 more rows

gwas(x[training2], G[training2,])

## # A tibble: 40 x 7
##     ahat     bhat      se   fval   pval     n   snp
##    <dbl>    <dbl>   <dbl>  <dbl>  <dbl> <dbl> <int>
##  1 0.506  0.00197 0.00408 0.234  0.629  10000     1
##  2 0.514 -0.00553 0.00411 1.82   0.178  10000     2
##  3 0.510 -0.00193 0.00407 0.226  0.635  10000     3
##  4 0.507  0.00127 0.00412 0.0957 0.757  10000     4
##  5 0.512 -0.00327 0.00408 0.640  0.424  10000     5
##  6 0.510 -0.00160 0.00406 0.156  0.693  10000     6
##  7 0.511 -0.00288 0.00409 0.495  0.482  10000     7
##  8 0.504  0.00419 0.00410 1.04   0.308  10000     8
##  9 0.515 -0.00677 0.00409 2.74   0.0977 10000     9
## 10 0.510 -0.00188 0.00409 0.211  0.646  10000    10
## # … with 30 more rows
…
